<?xml version="1.0" encoding="utf-8"?>
<svg version="1.1" id="Layer_1" xmlns="http://www.w3.org/2000/svg" xmlns:xlink="http://www.w3.org/1999/xlink" x="0px" y="0px"
	 viewBox="0 0 48 48" style="enable-background:new 0 0 48 48;" xml:space="preserve">
<path
   d="m 5.4,29.432305 c 0,-2.20805 0.6021955,-4.742289 1.8065865,-7.602718 1.204391,-2.860429 2.7600627,-5.645583 4.6670155,-8.30528 3.914271,-5.1688444 7.326711,-9.0831152 10.18714,-11.7177205 L 23.942603,0 c 0.627287,0.6523785 1.329848,1.254574 2.082593,1.8065865 1.02875,1.0538421 2.609514,2.7851542 4.717198,5.2441192 2.107684,2.458965 3.939362,4.6419233 5.444851,6.6492423 1.781495,2.534239 3.312075,5.26921 4.541558,8.154731 1.229482,2.88552 1.856769,5.419759 1.856769,7.602718 0,2.509148 -0.476738,4.892838 -1.455306,7.176163 -0.978567,2.283324 -2.283324,4.265551 -3.939362,5.921589 -1.656037,1.656038 -3.638264,2.985886 -5.94668,3.964454 C 28.935807,47.49817 26.501934,48 23.942603,48 21.433455,48 19.049765,47.523262 16.76644,46.569786 14.483116,45.616309 12.500889,44.336644 10.844851,42.680606 9.1888134,41.04966 7.858965,39.067433 6.8803973,36.784109 5.9018296,34.500784 5.4,32.041819 5.4,29.432305 Z m 5.670674,-7.351803 c 0,2.082593 0.426556,3.73863 1.304757,4.993204 0.878202,1.229483 2.20805,1.85677 3.989545,1.85677 1.806587,0 3.136435,-0.627287 4.039728,-1.85677 0.878202,-1.229482 1.329849,-2.88552 1.35494,-4.993204 -0.02509,-2.107684 -0.476738,-3.763722 -1.35494,-5.018296 -0.878201,-1.229482 -2.233141,-1.85677 -4.039727,-1.85677 -1.781496,0 -3.111344,0.627288 -3.989546,1.85677 -0.878201,1.254574 -1.304757,2.910612 -1.304757,5.018296 z m 3.939363,0 c 0,-0.376372 0,-0.67747 0,-0.878202 0,-0.200732 0.02509,-0.476738 0.05018,-0.828019 0.02509,-0.35128 0.05018,-0.627287 0.125457,-0.802927 0.07527,-0.17564 0.125457,-0.401464 0.225823,-0.602196 0.100366,-0.200731 0.225824,-0.376372 0.376373,-0.451646 0.17564,-0.100366 0.35128,-0.150549 0.577104,-0.150549 0.35128,0 0.627287,0.100366 0.828018,0.301098 0.200732,0.200731 0.351281,0.526921 0.426555,0.953476 0.07527,0.451646 0.125458,0.802927 0.150549,1.129116 0.02509,0.32619 0.02509,0.752745 0.02509,1.304757 0,0.577104 0,1.00366 -0.02509,1.304757 -0.02509,0.301098 -0.07527,0.67747 -0.150549,1.129117 -0.07527,0.426555 -0.225823,0.752744 -0.426555,0.953476 -0.200731,0.200732 -0.476738,0.301098 -0.828018,0.301098 -0.225824,0 -0.401464,-0.05018 -0.577104,-0.150549 -0.175641,-0.100366 -0.301098,-0.250915 -0.376373,-0.451647 -0.100366,-0.200732 -0.17564,-0.426555 -0.225823,-0.602195 -0.05018,-0.200732 -0.100366,-0.476738 -0.125457,-0.802928 -0.02509,-0.35128 -0.05018,-0.627287 -0.05018,-0.802927 0,-0.17564 0,-0.476738 0,-0.85311 z m 1.480397,19.445896 h 3.312075 L 32.323157,14.578149 h -3.38735 z M 27.27977,34.024046 c 0.02509,2.107684 0.501829,3.763722 1.380031,5.018296 0.878202,1.229482 2.233142,1.856769 4.014637,1.856769 1.806586,0 3.136435,-0.627287 4.014637,-1.856769 0.878201,-1.229483 1.304756,-2.910612 1.329848,-5.018296 -0.02509,-2.107684 -0.451647,-3.763722 -1.329848,-4.993204 -0.878202,-1.229483 -2.208051,-1.85677 -4.014637,-1.85677 -1.781495,0 -3.136435,0.627287 -4.014637,1.85677 -0.903293,1.229482 -1.35494,2.88552 -1.380031,4.993204 z m 3.939362,0 c 0,-0.577104 0,-1.003659 0.02509,-1.304757 0.02509,-0.301098 0.07527,-0.67747 0.150548,-1.129116 0.07528,-0.451647 0.225824,-0.752745 0.426556,-0.953477 0.200731,-0.200732 0.476738,-0.301097 0.828018,-0.301097 0.225824,0 0.426556,0.05018 0.602196,0.150548 0.17564,0.100366 0.301098,0.250915 0.401464,0.476739 0.100365,0.225823 0.17564,0.426555 0.250914,0.602195 0.07528,0.17564 0.100366,0.451647 0.125458,0.802927 l 0.02509,0.802928 v 0.85311 c 0,0.401464 0,0.702561 0,0.878202 l -0.02509,0.802927 -0.125458,0.802927 -0.250914,0.602196 -0.401464,0.476738 -0.602196,0.150549 c -0.35128,0 -0.627287,-0.100366 -0.828018,-0.301098 -0.200732,-0.200732 -0.351281,-0.526921 -0.426556,-0.953476 -0.07527,-0.451647 -0.125457,-0.828019 -0.150548,-1.129117 -0.02509,-0.301097 -0.02509,-0.752744 -0.02509,-1.329848 z"
   id="path2"
   style="stroke-width:2.50915" />
</svg>
