<?xml version="1.0" encoding="utf-8"?>
<svg version="1.1" id="Layer_1" xmlns="http://www.w3.org/2000/svg" xmlns:xlink="http://www.w3.org/1999/xlink" x="0px" y="0px"
	 viewBox="0 0 48 48" style="enable-background:new 0 0 48 48;" xml:space="preserve">
<path
   d="M 0,23.989338 C 0,19.660595 1.0661928,15.65171 3.2199023,11.962683 5.3736117,8.2736562 8.2736562,5.3522879 11.962683,3.2199023 15.65171,1.0875167 19.660595,0 23.989338,0 c 3.241226,0 6.354509,0.6397157 9.318525,1.8978232 2.964016,1.2581075 5.522879,2.9853398 7.676588,5.1177254 2.15371,2.1323856 3.859618,4.6912484 5.117726,7.6552644 C 47.360284,17.634829 48,20.726788 48,23.989338 c 0,3.26255 -0.639716,6.354509 -1.897823,9.318525 -1.258108,2.964016 -2.98534,5.522879 -5.117726,7.676588 -2.132385,2.15371 -4.691248,3.859618 -7.676588,5.117726 C 30.322523,47.360284 27.230564,48 23.989338,48 20.748112,48 17.634829,47.360284 14.670813,46.102177 11.706797,44.844069 9.1479343,43.116837 7.0155486,40.984451 4.883163,38.852066 3.1772546,36.293203 1.8978232,33.307863 0.6183918,30.322523 0,27.251888 0,23.989338 Z m 14.500222,0 c 0,9.467792 2.494891,16.58996 7.46335,21.366504 0.149267,0 0.362505,0 0.639715,0.02132 0.277211,0.02132 0.533097,0.04265 0.746335,0.04265 0.213239,0 0.426478,0.02132 0.639716,0.02132 2.900044,0 5.672146,-0.575744 8.316304,-1.705908 2.644158,-1.130165 4.947135,-2.665482 6.866282,-4.584629 1.919147,-1.919147 3.43314,-4.2008 4.584629,-6.844958 1.151488,-2.644158 1.705908,-5.41626 1.705908,-8.337628 0,-2.900044 -0.575744,-5.672145 -1.705908,-8.316304 C 42.626388,13.007552 41.091071,10.7259 39.171924,8.8067525 37.252777,6.8876055 34.971124,5.3736117 32.305642,4.2221235 29.64016,3.0706353 26.868059,2.516215 23.989338,2.516215 c -0.767659,0 -1.343403,0.021324 -1.727232,0.063972 -2.302977,2.60151 -4.179476,5.7361169 -5.629498,9.425144 -1.450023,3.689027 -2.132386,7.697912 -2.132386,11.984007 z"
   id="path389"
   style="stroke-width:2.13239" />
</svg>
