<?xml version="1.0" encoding="utf-8"?>
<svg version="1.1" id="Layer_1" xmlns="http://www.w3.org/2000/svg" xmlns:xlink="http://www.w3.org/1999/xlink" x="0px" y="0px"
	 viewBox="0 0 48 48" style="enable-background:new 0 0 48 48;" xml:space="preserve">
<path
   d="m 12.94,36.961521 c 0,-1.84699 0.434586,-3.563603 1.282028,-5.171571 0.847442,-1.607967 2.042553,-2.933454 3.585333,-3.998189 V 6.236306 c 0,-1.7383431 0.586691,-3.2159348 1.781801,-4.4110457 C 20.784273,0.6301494 22.261865,0 24.000208,0 c 1.760072,0 3.237664,0.6084201 4.432775,1.803531 1.195111,1.2168402 1.803531,2.6727026 1.803531,4.4110457 V 27.770032 c 1.54278,1.064735 2.716161,2.411951 3.563603,3.998189 0.847443,1.586238 1.260299,3.324581 1.260299,5.171571 0,1.999094 -0.499773,3.867813 -1.477591,5.562698 -0.977818,1.694884 -2.325034,3.0421 -4.019919,4.019918 C 27.868021,47.500226 26.021032,48 24.000208,48 22.001113,48 20.154124,47.500226 18.459239,46.522408 16.764355,45.54459 15.417139,44.197374 14.417592,42.50249 13.418044,40.807605 12.94,38.960616 12.94,36.961521 Z m 3.824355,0 c 0,2.020824 0.717066,3.759167 2.12947,5.1933 1.412404,1.434133 3.129018,2.1512 5.128112,2.1512 2.020824,0 3.759167,-0.717067 5.21503,-2.172929 1.455862,-1.455862 2.194658,-3.172476 2.194658,-5.149842 0,-1.347216 -0.347669,-2.607514 -1.043006,-3.759167 -0.695337,-1.151652 -1.651426,-2.042553 -2.868266,-2.672702 l -0.60842,-0.30421 c -0.217293,-0.08692 -0.32594,-0.30421 -0.32594,-0.63015 V 6.236306 c 0,-0.6953372 -0.239022,-1.282028 -0.738795,-1.7600724 -0.499774,-0.4563151 -1.108194,-0.6953373 -1.84699,-0.6953373 -0.695337,0 -1.303757,0.2390222 -1.803531,0.6953373 -0.499774,0.4563151 -0.738796,1.0430059 -0.738796,1.7600724 v 23.337257 c 0,0.325939 -0.108646,0.543232 -0.30421,0.630149 l -0.586691,0.30421 c -1.195111,0.63015 -2.12947,1.52105 -2.803078,2.672703 -0.673608,1.151652 -0.999547,2.390222 -0.999547,3.780896 z m 1.694884,0 c 0,1.54278 0.521503,2.868266 1.586238,3.954731 1.064736,1.086464 2.325034,1.629696 3.824355,1.629696 1.499321,0 2.781349,-0.543232 3.889543,-1.629696 1.108194,-1.086465 1.651426,-2.411951 1.651426,-3.933002 0,-1.368945 -0.478044,-2.585785 -1.412404,-3.628791 -0.934359,-1.043006 -2.086012,-1.673155 -3.433227,-1.84699 V 15.514712 c 0,-0.130375 -0.06519,-0.28248 -0.217293,-0.412856 -0.152105,-0.152105 -0.30421,-0.217293 -0.478045,-0.217293 -0.195563,0 -0.347668,0.06519 -0.456315,0.173834 -0.108646,0.130376 -0.173834,0.260752 -0.173834,0.456315 v 15.949299 c -1.325487,0.195563 -2.45541,0.803984 -3.389769,1.846989 -0.93436,1.064736 -1.390675,2.259847 -1.390675,3.650521 z"
   id="path545"
   style="stroke-width:2.17293" />
</svg>
