<?xml version="1.0" encoding="utf-8"?>
<svg version="1.1" id="Layer_1" xmlns="http://www.w3.org/2000/svg" xmlns:xlink="http://www.w3.org/1999/xlink" x="0px" y="0px"
	 viewBox="0 0 48 48" style="enable-background:new 0 0 48 48;" xml:space="preserve">
<path
   d="M 0,23.989338 C 0,20.748112 0.6397157,17.634829 1.8978232,14.670813 3.1559307,11.706797 4.883163,9.1692581 7.0155486,7.0155486 9.1479343,4.8618392 11.706797,3.1559307 14.670813,1.8978232 17.634829,0.6397157 20.726788,0 23.989338,0 c 3.26255,0 6.354509,0.6397157 9.318525,1.8978232 2.964016,1.2581075 5.522879,2.9853398 7.676588,5.1177254 2.15371,2.1323856 3.859618,4.6912484 5.117726,7.6552644 C 47.360284,17.634829 48,20.726788 48,23.989338 c 0,3.26255 -0.639716,6.354509 -1.897823,9.318525 -1.258108,2.964016 -2.98534,5.522879 -5.117726,7.676588 -2.132385,2.15371 -4.691248,3.859618 -7.676588,5.117726 C 30.322523,47.360284 27.230564,48 23.989338,48 20.748112,48 17.634829,47.360284 14.670813,46.102177 11.706797,44.844069 9.1692581,43.116837 7.0155486,40.984451 4.8618392,38.852066 3.1559307,36.293203 1.8978232,33.307863 0.6397157,30.322523 0,27.251888 0,23.989338 Z M 25.247446,2.6015104 c 2.729453,2.3456242 4.947134,5.3522879 6.674367,8.9986676 1.727232,3.646379 2.60151,7.783207 2.60151,12.410484 0,9.894269 -2.964016,17.037761 -8.870724,21.430475 2.729453,-0.213238 5.30964,-0.916926 7.74056,-2.132385 2.430919,-1.21546 4.541981,-2.750778 6.311861,-4.648601 1.76988,-1.897823 3.177255,-4.115504 4.2008,-6.674367 1.023545,-2.558863 1.556641,-5.203021 1.556641,-7.975122 0,-3.731675 -0.895602,-7.207463 -2.686806,-10.427366 C 40.984451,10.363394 38.532208,7.7832075 35.440249,5.8214127 32.34829,3.8596179 28.936473,2.7934251 25.247446,2.6015104 Z"
   id="path337"
   style="stroke-width:2.13239" />
</svg>
