<?xml version="1.0" encoding="UTF-8" standalone="no"?>
<!-- Created with Inkscape (http://www.inkscape.org/) -->

<svg
   xmlns:dc="http://purl.org/dc/elements/1.1/"
   xmlns:cc="http://creativecommons.org/ns#"
   xmlns:rdf="http://www.w3.org/1999/02/22-rdf-syntax-ns#"
   xmlns:svg="http://www.w3.org/2000/svg"
   xmlns="http://www.w3.org/2000/svg"
   xmlns:xlink="http://www.w3.org/1999/xlink"
   xmlns:sodipodi="http://sodipodi.sourceforge.net/DTD/sodipodi-0.dtd"
   xmlns:inkscape="http://www.inkscape.org/namespaces/inkscape"
   width="24"
   height="24"
   viewBox="0 0 6.350001 6.3499995"
   version="1.1"
   id="svg520"
   inkscape:version="0.92.4 (5da689c313, 2019-01-14)"
   sodipodi:docname="com.gitlab.bitseater.meteo.svg">
  <defs
     id="defs514">
    <filter
       style="color-interpolation-filters:sRGB"
       inkscape:label="Drop Shadow"
       id="filter4738">
      <feFlood
         flood-opacity="0.498039"
         flood-color="rgb(0,0,0)"
         result="flood"
         id="feFlood4740" />
      <feComposite
         in="flood"
         in2="SourceGraphic"
         operator="out"
         result="composite1"
         id="feComposite4742" />
      <feGaussianBlur
         in="composite1"
         stdDeviation="2"
         result="blur"
         id="feGaussianBlur4744" />
      <feOffset
         dx="1"
         dy="1"
         result="offset"
         id="feOffset4746" />
      <feComposite
         in="offset"
         in2="SourceGraphic"
         operator="atop"
         result="composite2"
         id="feComposite4748" />
    </filter>
    <radialGradient
       inkscape:collect="always"
       xlink:href="#linearGradient4272"
       id="radialGradient4278"
       cx="65"
       cy="67"
       fx="65"
       fy="67"
       r="19.5"
       gradientTransform="matrix(1,0,0,2.0769231,-683.01123,265.45332)"
       gradientUnits="userSpaceOnUse" />
    <linearGradient
       inkscape:collect="always"
       id="linearGradient4272">
      <stop
         style="stop-color:#fafafa;stop-opacity:0.5"
         offset="0"
         id="stop4274" />
      <stop
         style="stop-color:#fafafa;stop-opacity:0.18421052"
         offset="1"
         id="stop4276" />
    </linearGradient>
  </defs>
  <sodipodi:namedview
     id="base"
     pagecolor="#ffffff"
     bordercolor="#666666"
     borderopacity="1.0"
     inkscape:pageopacity="0.0"
     inkscape:pageshadow="2"
     inkscape:zoom="4.0078125"
     inkscape:cx="-42.443023"
     inkscape:cy="5.4394376"
     inkscape:document-units="px"
     inkscape:current-layer="g1278-7"
     showgrid="true"
     fit-margin-top="0"
     fit-margin-left="0"
     fit-margin-right="0"
     fit-margin-bottom="0"
     units="px"
     inkscape:window-width="1366"
     inkscape:window-height="704"
     inkscape:window-x="0"
     inkscape:window-y="27"
     inkscape:window-maximized="1">
    <inkscape:grid
       type="xygrid"
       id="grid30"
       originx="-15.015105"
       originy="-15.230078" />
  </sodipodi:namedview>
  <metadata
     id="metadata517">
    <rdf:RDF>
      <cc:Work
         rdf:about="">
        <dc:format>image/svg+xml</dc:format>
        <dc:type
           rdf:resource="http://purl.org/dc/dcmitype/StillImage" />
        <dc:title></dc:title>
      </cc:Work>
    </rdf:RDF>
  </metadata>
  <g
     inkscape:label="Capa 1"
     inkscape:groupmode="layer"
     id="layer1"
     transform="translate(-120.0925,-129.02974)">
    <g
       style="display:inline;enable-background:new"
       id="g1278-7"
       transform="matrix(0.26458333,0,0,0.26458333,285.52622,25.316041)">
      <path
         inkscape:connector-curvature="0"
         id="path945-5"
         d="m -602.01133,403.9888 a 11.249999,11.249999 0 0 1 -11.24999,11.25 11.249999,11.249999 0 0 1 -11.25,-11.25 11.249999,11.249999 0 0 1 11.25,-11.25 11.249999,11.249999 0 0 1 11.24999,11.25 z"
         style="display:inline;opacity:1;fill:#d5d3cf;fill-opacity:1;stroke:none;stroke-width:0.00211841px;stroke-linecap:butt;stroke-linejoin:miter;stroke-miterlimit:4;stroke-dasharray:none;stroke-dashoffset:0;stroke-opacity:1;marker:none;marker-start:none;marker-mid:none;marker-end:none;paint-order:normal;enable-background:new" />
      <rect
         style="display:inline;opacity:1;fill:#d5d3cf;fill-opacity:1;stroke:none;stroke-width:0.00211841px;stroke-linecap:butt;stroke-linejoin:miter;stroke-miterlimit:4;stroke-dasharray:none;stroke-dashoffset:0;stroke-opacity:1;marker:none;marker-start:none;marker-mid:none;marker-end:none;paint-order:normal;enable-background:new"
         id="rect978-3"
         width="21"
         height="21.375"
         x="-623.76129"
         y="393.1138"
         rx="10.5"
         ry="10.5" />
      <path
         style="display:inline;opacity:1;fill:#f6f5f4;fill-opacity:1;stroke:none;stroke-width:0.00211841px;stroke-linecap:butt;stroke-linejoin:miter;stroke-miterlimit:4;stroke-dasharray:none;stroke-dashoffset:0;stroke-opacity:1;marker:none;marker-start:none;marker-mid:none;marker-end:none;paint-order:normal;enable-background:new"
         d="m -602.01133,403.6138 a 11.249999,11.249999 0 0 1 -11.24999,11.25 11.249999,11.249999 0 0 1 -11.25,-11.25 11.249999,11.249999 0 0 1 11.25,-11.25 11.249999,11.249999 0 0 1 11.24999,11.25 z"
         id="path981-5"
         inkscape:connector-curvature="0" />
      <circle
         r="10.125"
         style="display:inline;opacity:1;fill:#3584e4;fill-opacity:1;stroke:none;stroke-width:0.00211841px;stroke-linecap:butt;stroke-linejoin:miter;stroke-miterlimit:4;stroke-dasharray:none;stroke-dashoffset:0;stroke-opacity:1;marker:none;marker-start:none;marker-mid:none;marker-end:none;paint-order:normal;enable-background:new"
         id="circle983-6"
         cx="-613.26129"
         cy="403.6138" />
      <path
         inkscape:connector-curvature="0"
         id="circle1003-6-3"
         d="m -613.2613,393.4888 a 10.125,10.125 0 0 0 -10.125,10.125 10.125,10.125 0 0 0 0.008,0.21954 10.125,10.125 0 0 1 10.11721,-9.96954 10.125,10.125 0 0 1 10.11722,9.90528 10.125,10.125 0 0 0 0.008,-0.15528 10.125,10.125 0 0 0 -10.125,-10.125 z"
         style="display:inline;opacity:0.1;fill:#000000;fill-opacity:1;stroke:none;stroke-width:0.00211841px;stroke-linecap:butt;stroke-linejoin:miter;stroke-miterlimit:4;stroke-dasharray:none;stroke-dashoffset:0;stroke-opacity:1;marker:none;marker-start:none;marker-mid:none;marker-end:none;paint-order:normal;enable-background:new" />
      <g
         style="filter:url(#filter4738)"
         id="sketches"
         transform="matrix(0.09852217,-0.09852217,0.09764251,0.09764251,-609.21343,403.60853)" />
      <path
         style="color:#000000;clip-rule:nonzero;display:inline;overflow:visible;visibility:visible;opacity:1;isolation:auto;mix-blend-mode:normal;color-interpolation:sRGB;color-interpolation-filters:linearRGB;solid-color:#000000;solid-opacity:1;fill:#241f31;fill-opacity:1;fill-rule:evenodd;stroke:#273445;stroke-width:0.9375;stroke-linecap:butt;stroke-linejoin:miter;stroke-miterlimit:4;stroke-dasharray:none;stroke-dashoffset:0;stroke-opacity:1;color-rendering:auto;image-rendering:auto;shape-rendering:auto;text-rendering:auto;enable-background:accumulate"
         d="m -613.19943,395.56178 c -0.38021,-6e-5 -0.73623,0.10539 -1.04137,0.28917 -0.60272,0.36298 -1.00693,1.03155 -1.00693,1.79625 3.7e-4,0.13162 0.0135,0.26289 0.0384,0.39205 v 5.95694 c -1.06265,0.66951 -1.70761,1.83783 -1.70818,3.09438 -6e-5,2.02062 1.63691,3.6587 3.65625,3.65871 2.01933,-10e-6 3.6563,-1.63809 3.65625,-3.65871 -4e-5,-0.56876 -0.13217,-1.12025 -0.37601,-1.6158 -0.27415,-0.55717 -0.68951,-1.04363 -1.21711,-1.40447 v -5.98579 c 0.0306,-0.14368 0.0463,-0.29027 0.0466,-0.43731 0,-1.15172 -0.91688,-2.08538 -2.04793,-2.08542 z"
         id="path4209"
         inkscape:connector-curvature="0"
         sodipodi:nodetypes="csccccccscccc" />
      <circle
         style="color:#000000;clip-rule:nonzero;display:inline;overflow:visible;visibility:visible;opacity:1;isolation:auto;mix-blend-mode:normal;color-interpolation:sRGB;color-interpolation-filters:linearRGB;solid-color:#000000;solid-opacity:1;fill:#98c1f1;fill-opacity:1;fill-rule:evenodd;stroke:#98c1f1;stroke-width:0.93750012;stroke-linecap:round;stroke-linejoin:round;stroke-miterlimit:4;stroke-dasharray:none;stroke-dashoffset:0;stroke-opacity:1;color-rendering:auto;image-rendering:auto;shape-rendering:auto;text-rendering:auto;enable-background:accumulate"
         id="path4232"
         cx="-613.26129"
         cy="407.18677"
         r="1.40625" />
      <path
         style="fill:none;fill-rule:evenodd;stroke:#fafafa;stroke-width:0.93749994;stroke-linecap:round;stroke-linejoin:round;stroke-miterlimit:4;stroke-dasharray:none;stroke-opacity:1"
         d="m -613.26131,397.78807 v 3.0303 z"
         id="path4222-7"
         inkscape:connector-curvature="0" />
      <path
         style="fill:none;fill-rule:evenodd;stroke:#98c1f1;stroke-width:0.93749994;stroke-linecap:round;stroke-linejoin:round;stroke-miterlimit:4;stroke-dasharray:none;stroke-opacity:1"
         d="m -613.26131,400.82529 v 5.95202 z"
         id="path4222"
         inkscape:connector-curvature="0" />
    </g>
    <path
       style="fill:#584e40;fill-opacity:0;stroke-width:0.00658045"
       d="m 123.07187,134.77555 c -0.0181,-0.001 -0.0791,-0.008 -0.13557,-0.015 -1.09006,-0.13631 -1.98457,-0.92248 -2.26017,-1.98642 -0.0668,-0.25804 -0.097,-0.56017 -0.0777,-0.77741 0.0361,-0.40534 0.14636,-0.76866 0.33465,-1.10217 0.41745,-0.73941 1.1365,-1.22696 1.98417,-1.34536 0.2165,-0.0302 0.49633,-0.0288 0.72714,0.004 0.85858,0.121 1.61125,0.65869 2.00696,1.43372 0.14788,0.28964 0.24277,0.60892 0.28064,0.94429 0.0123,0.10923 0.0105,0.34376 -0.004,0.46392 -0.0699,0.59511 -0.31575,1.12625 -0.71737,1.5497 -0.45813,0.48302 -1.0614,0.77186 -1.73115,0.82886 -0.0724,0.006 -0.3299,0.008 -0.40799,0.002 z m 0.28954,-0.66027 c 0.27214,-0.0257 0.50807,-0.1388 0.69458,-0.33295 0.12637,-0.13155 0.21311,-0.28327 0.26543,-0.46426 0.0518,-0.17923 0.0499,-0.41987 -0.005,-0.60115 -0.0621,-0.2057 -0.17739,-0.38589 -0.33029,-0.51605 l -0.0495,-0.0421 0.004,-0.77365 c 0.002,-0.4255 0.004,-0.81806 0.004,-0.87235 10e-4,-0.088 -5e-4,-0.10545 -0.0161,-0.16122 -0.0324,-0.11784 -0.0821,-0.2067 -0.16339,-0.29232 -0.086,-0.0905 -0.19133,-0.15439 -0.3122,-0.1893 -0.0466,-0.0134 -0.0662,-0.0151 -0.17109,-0.0148 -0.10986,3.4e-4 -0.12274,0.002 -0.17767,0.0185 -0.31937,0.0975 -0.52091,0.39705 -0.48492,0.72075 0.006,0.0503 0.008,0.28078 0.008,0.80715 l -8e-5,0.73671 -0.0502,0.0393 c -0.10942,0.0858 -0.21811,0.22137 -0.28496,0.35551 -0.1257,0.25226 -0.15215,0.53217 -0.0754,0.79796 0.0511,0.17687 0.14723,0.33755 0.28247,0.47207 0.19723,0.19618 0.46965,0.31126 0.75332,0.31825 0.0199,3.7e-4 0.0688,-0.002 0.10858,-0.006 z"
       id="path30"
       inkscape:connector-curvature="0" />
    <path
       style="fill:#3584e4;fill-opacity:0;stroke-width:0.00658045"
       d="m 123.062,134.77622 c -0.0127,-0.001 -0.0526,-0.006 -0.0888,-0.01 -0.49434,-0.0527 -0.98764,-0.25803 -1.38496,-0.57636 -0.61809,-0.49522 -0.99168,-1.26387 -0.99575,-2.04875 -0.002,-0.35851 0.1001,-0.77471 0.27619,-1.12739 0.13144,-0.26327 0.27946,-0.47049 0.48896,-0.68452 0.33864,-0.34596 0.7427,-0.58337 1.21086,-0.71145 0.6697,-0.18321 1.39573,-0.0943 2.00194,0.24523 0.67955,0.38058 1.15421,1.02446 1.31758,1.7873 0.0421,0.19633 0.0522,0.2893 0.0523,0.48095 5e-5,0.0972 -0.004,0.20379 -0.008,0.24677 -0.07,0.62387 -0.33746,1.18578 -0.77061,1.61894 -0.41913,0.41911 -0.95376,0.68262 -1.54985,0.76387 -0.0783,0.0106 -0.14302,0.0139 -0.31257,0.0156 -0.11762,0.001 -0.22423,0.001 -0.23689,-3.7e-4 z m 0.28625,-0.66107 c 0.57797,-0.05 1.01009,-0.51577 1.01009,-1.08867 0,-0.3057 -0.11989,-0.58271 -0.34542,-0.79808 l -0.0764,-0.0729 0.004,-0.79176 c 0.002,-0.43546 0.004,-0.8258 0.004,-0.86742 -2.5e-4,-0.31213 -0.25439,-0.59843 -0.56724,-0.63903 -0.0711,-0.009 -0.19461,-0.002 -0.25899,0.0138 -0.0605,0.0155 -0.14474,0.0541 -0.20168,0.0925 -0.054,0.0364 -0.1376,0.11707 -0.17354,0.16749 -0.0938,0.13159 -0.13926,0.30249 -0.12267,0.46126 0.005,0.0491 0.008,0.30399 0.007,0.80962 l -2e-5,0.73786 -0.0378,0.0284 c -0.0581,0.0437 -0.15794,0.14822 -0.20738,0.2171 -0.0537,0.0748 -0.12826,0.22318 -0.15518,0.30878 -0.0969,0.3081 -0.0572,0.62942 0.11178,0.90648 0.0911,0.14938 0.24631,0.29623 0.40706,0.38518 0.0627,0.0347 0.17953,0.08 0.25579,0.0993 0.0758,0.0191 0.14324,0.0287 0.2509,0.0358 0.009,5e-4 0.052,-0.002 0.0954,-0.006 z"
       id="path34"
       inkscape:connector-curvature="0" />
    <path
       style="fill:#3584e4;fill-opacity:0;stroke-width:0.00658045"
       d="m 123.02818,134.77343 c -0.80033,-0.0829 -1.48686,-0.47899 -1.94721,-1.12353 -0.24665,-0.34534 -0.4095,-0.76305 -0.46881,-1.2025 -0.0172,-0.12728 -0.0239,-0.37812 -0.0131,-0.4872 0.0376,-0.37964 0.1561,-0.75836 0.33555,-1.07237 0.57812,-1.01165 1.71754,-1.53561 2.85325,-1.31205 0.70452,0.13869 1.32935,0.56125 1.72329,1.16543 0.21684,0.33256 0.34952,0.68818 0.41316,1.10737 0.0213,0.14064 0.0216,0.42954 3.7e-4,0.58566 -0.0594,0.43921 -0.20328,0.82056 -0.44327,1.17461 -0.36062,0.53199 -0.90766,0.92101 -1.52257,1.08277 -0.24404,0.0642 -0.38543,0.0824 -0.66133,0.0853 -0.11763,0.001 -0.23886,-3.4e-4 -0.2694,-0.004 z m 0.31875,-0.65829 c 0.26429,-0.023 0.48947,-0.12303 0.67454,-0.29986 0.15834,-0.15127 0.26951,-0.35128 0.3172,-0.57067 0.0126,-0.058 0.0145,-0.0866 0.0145,-0.21813 0,-0.17048 -0.008,-0.22444 -0.0527,-0.35303 -0.06,-0.17294 -0.13404,-0.28937 -0.27133,-0.42671 l -0.0953,-0.0954 0.006,-0.77325 c 0.007,-1.01293 0.008,-0.95219 -0.01,-1.02001 -0.0172,-0.0656 -0.0597,-0.15882 -0.0995,-0.21796 -0.0626,-0.0929 -0.17034,-0.18306 -0.27875,-0.23315 -0.0888,-0.041 -0.14476,-0.0518 -0.26712,-0.0517 -0.12246,1.6e-4 -0.17948,0.0112 -0.26712,0.0517 -0.26537,0.12261 -0.4199,0.38673 -0.39677,0.67813 0.002,0.0326 0.005,0.39571 0.005,0.80697 l 0.001,0.74775 -0.0245,0.0187 c -0.16393,0.12503 -0.30214,0.31957 -0.36885,0.51915 -0.12715,0.38044 -0.0405,0.78933 0.2299,1.08494 0.18368,0.20081 0.44136,0.32869 0.70966,0.35219 0.0894,0.008 0.0876,0.008 0.17438,2.9e-4 z"
       id="path4544"
       inkscape:connector-curvature="0" />
    <path
       style="fill:#3584e4;fill-opacity:0;stroke-width:0.00658045"
       d="m 123.02818,134.77343 c -0.80033,-0.0829 -1.48686,-0.47899 -1.94721,-1.12353 -0.24665,-0.34534 -0.4095,-0.76305 -0.46881,-1.2025 -0.0172,-0.12728 -0.0239,-0.37812 -0.0131,-0.4872 0.0376,-0.37964 0.1561,-0.75836 0.33555,-1.07237 0.57812,-1.01165 1.71754,-1.53561 2.85325,-1.31205 0.70452,0.13869 1.32935,0.56125 1.72329,1.16543 0.21684,0.33256 0.34952,0.68818 0.41316,1.10737 0.0213,0.14064 0.0216,0.42954 3.7e-4,0.58566 -0.0594,0.43921 -0.20328,0.82056 -0.44327,1.17461 -0.36062,0.53199 -0.90766,0.92101 -1.52257,1.08277 -0.24404,0.0642 -0.38543,0.0824 -0.66133,0.0853 -0.11763,0.001 -0.23886,-3.4e-4 -0.2694,-0.004 z m 0.31875,-0.65829 c 0.26429,-0.023 0.48947,-0.12303 0.67454,-0.29986 0.15834,-0.15127 0.26951,-0.35128 0.3172,-0.57067 0.0126,-0.058 0.0145,-0.0866 0.0145,-0.21813 0,-0.17048 -0.008,-0.22444 -0.0527,-0.35303 -0.06,-0.17294 -0.13404,-0.28937 -0.27133,-0.42671 l -0.0953,-0.0954 0.006,-0.77325 c 0.007,-1.01293 0.008,-0.95219 -0.01,-1.02001 -0.0172,-0.0656 -0.0597,-0.15882 -0.0995,-0.21796 -0.0626,-0.0929 -0.17034,-0.18306 -0.27875,-0.23315 -0.0888,-0.041 -0.14476,-0.0518 -0.26712,-0.0517 -0.12246,1.6e-4 -0.17948,0.0112 -0.26712,0.0517 -0.26537,0.12261 -0.4199,0.38673 -0.39677,0.67813 0.002,0.0326 0.005,0.39571 0.005,0.80697 l 0.001,0.74775 -0.0245,0.0187 c -0.16393,0.12503 -0.30214,0.31957 -0.36885,0.51915 -0.12715,0.38044 -0.0405,0.78933 0.2299,1.08494 0.18368,0.20081 0.44136,0.32869 0.70966,0.35219 0.0894,0.008 0.0876,0.008 0.17438,2.9e-4 z"
       id="path4546"
       inkscape:connector-curvature="0" />
    <path
       style="fill:#358400;fill-opacity:0;stroke-width:0.00658045"
       d="m 123.02818,134.77343 c -0.80033,-0.0829 -1.48686,-0.47899 -1.94721,-1.12353 -0.24665,-0.34534 -0.4095,-0.76305 -0.46881,-1.2025 -0.0172,-0.12728 -0.0239,-0.37812 -0.0131,-0.4872 0.0376,-0.37964 0.1561,-0.75836 0.33555,-1.07237 0.57812,-1.01165 1.71754,-1.53561 2.85325,-1.31205 0.70452,0.13869 1.32935,0.56125 1.72329,1.16543 0.21684,0.33256 0.34952,0.68818 0.41316,1.10737 0.0213,0.14064 0.0216,0.42954 3.7e-4,0.58566 -0.0594,0.43921 -0.20328,0.82056 -0.44327,1.17461 -0.36062,0.53199 -0.90766,0.92101 -1.52257,1.08277 -0.24404,0.0642 -0.38543,0.0824 -0.66133,0.0853 -0.11763,0.001 -0.23886,-3.4e-4 -0.2694,-0.004 z m 0.31875,-0.65829 c 0.26429,-0.023 0.48947,-0.12303 0.67454,-0.29986 0.15834,-0.15127 0.26951,-0.35128 0.3172,-0.57067 0.0126,-0.058 0.0145,-0.0866 0.0145,-0.21813 0,-0.17048 -0.008,-0.22444 -0.0527,-0.35303 -0.06,-0.17294 -0.13404,-0.28937 -0.27133,-0.42671 l -0.0953,-0.0954 0.006,-0.77325 c 0.007,-1.01293 0.008,-0.95219 -0.01,-1.02001 -0.0172,-0.0656 -0.0597,-0.15882 -0.0995,-0.21796 -0.0626,-0.0929 -0.17034,-0.18306 -0.27875,-0.23315 -0.0888,-0.041 -0.14476,-0.0518 -0.26712,-0.0517 -0.12246,1.6e-4 -0.17948,0.0112 -0.26712,0.0517 -0.26537,0.12261 -0.4199,0.38673 -0.39677,0.67813 0.002,0.0326 0.005,0.39571 0.005,0.80697 l 0.001,0.74775 -0.0245,0.0187 c -0.16393,0.12503 -0.30214,0.31957 -0.36885,0.51915 -0.12715,0.38044 -0.0405,0.78933 0.2299,1.08494 0.18368,0.20081 0.44136,0.32869 0.70966,0.35219 0.0894,0.008 0.0876,0.008 0.17438,2.9e-4 z"
       id="path4548"
       inkscape:connector-curvature="0" />
  </g>
</svg>
