<?xml version="1.0" encoding="UTF-8" standalone="no"?>
<!-- Created with Inkscape (http://www.inkscape.org/) -->

<svg
   xmlns:dc="http://purl.org/dc/elements/1.1/"
   xmlns:cc="http://creativecommons.org/ns#"
   xmlns:rdf="http://www.w3.org/1999/02/22-rdf-syntax-ns#"
   xmlns:svg="http://www.w3.org/2000/svg"
   xmlns="http://www.w3.org/2000/svg"
   xmlns:xlink="http://www.w3.org/1999/xlink"
   xmlns:sodipodi="http://sodipodi.sourceforge.net/DTD/sodipodi-0.dtd"
   xmlns:inkscape="http://www.inkscape.org/namespaces/inkscape"
   width="32"
   height="32"
   viewBox="0 0 8.466668 8.4666665"
   version="1.1"
   id="svg520"
   inkscape:version="0.92.4 (5da689c313, 2019-01-14)"
   sodipodi:docname="com.gitlab.bitseater.meteo.svg">
  <defs
     id="defs514">
    <filter
       style="color-interpolation-filters:sRGB"
       inkscape:label="Drop Shadow"
       id="filter4738">
      <feFlood
         flood-opacity="0.498039"
         flood-color="rgb(0,0,0)"
         result="flood"
         id="feFlood4740" />
      <feComposite
         in="flood"
         in2="SourceGraphic"
         operator="out"
         result="composite1"
         id="feComposite4742" />
      <feGaussianBlur
         in="composite1"
         stdDeviation="2"
         result="blur"
         id="feGaussianBlur4744" />
      <feOffset
         dx="1"
         dy="1"
         result="offset"
         id="feOffset4746" />
      <feComposite
         in="offset"
         in2="SourceGraphic"
         operator="atop"
         result="composite2"
         id="feComposite4748" />
    </filter>
    <radialGradient
       inkscape:collect="always"
       xlink:href="#linearGradient4272"
       id="radialGradient4278"
       cx="65"
       cy="67"
       fx="65"
       fy="67"
       r="19.5"
       gradientTransform="matrix(1,0,0,2.0769231,-683.01123,265.45332)"
       gradientUnits="userSpaceOnUse" />
    <linearGradient
       inkscape:collect="always"
       id="linearGradient4272">
      <stop
         style="stop-color:#fafafa;stop-opacity:0.5"
         offset="0"
         id="stop4274" />
      <stop
         style="stop-color:#fafafa;stop-opacity:0.18421052"
         offset="1"
         id="stop4276" />
    </linearGradient>
  </defs>
  <sodipodi:namedview
     id="base"
     pagecolor="#ffffff"
     bordercolor="#666666"
     borderopacity="1.0"
     inkscape:pageopacity="0.0"
     inkscape:pageshadow="2"
     inkscape:zoom="4.0078125"
     inkscape:cx="-10.517431"
     inkscape:cy="11.251934"
     inkscape:document-units="px"
     inkscape:current-layer="g1278-7"
     showgrid="true"
     fit-margin-top="0"
     fit-margin-left="0"
     fit-margin-right="0"
     fit-margin-bottom="0"
     units="px"
     inkscape:window-width="1366"
     inkscape:window-height="704"
     inkscape:window-x="0"
     inkscape:window-y="27"
     inkscape:window-maximized="1">
    <inkscape:grid
       type="xygrid"
       id="grid30"
       originx="-13.49375"
       originy="-13.69219" />
  </sodipodi:namedview>
  <metadata
     id="metadata517">
    <rdf:RDF>
      <cc:Work
         rdf:about="">
        <dc:format>image/svg+xml</dc:format>
        <dc:type
           rdf:resource="http://purl.org/dc/dcmitype/StillImage" />
        <dc:title></dc:title>
      </cc:Work>
    </rdf:RDF>
  </metadata>
  <g
     inkscape:label="Capa 1"
     inkscape:groupmode="layer"
     id="layer1"
     transform="translate(-118.57114,-128.45096)">
    <g
       style="display:inline;enable-background:new"
       id="g1278-7"
       transform="matrix(0.26458333,0,0,0.26458333,285.52622,25.316041)">
      <path
         inkscape:connector-curvature="0"
         id="path945-5"
         d="m -600.01133,405.8013 a 14.999999,14.999999 0 0 1 -14.99999,15 14.999999,14.999999 0 0 1 -15,-15 14.999999,14.999999 0 0 1 15,-14.99999 14.999999,14.999999 0 0 1 14.99999,14.99999 z"
         style="display:inline;opacity:1;fill:#d5d3cf;fill-opacity:1;stroke:none;stroke-width:0.00282455px;stroke-linecap:butt;stroke-linejoin:miter;stroke-miterlimit:4;stroke-dasharray:none;stroke-dashoffset:0;stroke-opacity:1;marker:none;marker-start:none;marker-mid:none;marker-end:none;paint-order:normal;enable-background:new" />
      <rect
         style="display:inline;opacity:1;fill:#d5d3cf;fill-opacity:1;stroke:none;stroke-width:0.00282455px;stroke-linecap:butt;stroke-linejoin:miter;stroke-miterlimit:4;stroke-dasharray:none;stroke-dashoffset:0;stroke-opacity:1;marker:none;marker-start:none;marker-mid:none;marker-end:none;paint-order:normal;enable-background:new"
         id="rect978-3"
         width="28"
         height="28.5"
         x="-629.01129"
         y="391.3013"
         rx="14"
         ry="14" />
      <path
         style="display:inline;opacity:1;fill:#f6f5f4;fill-opacity:1;stroke:none;stroke-width:0.00282455px;stroke-linecap:butt;stroke-linejoin:miter;stroke-miterlimit:4;stroke-dasharray:none;stroke-dashoffset:0;stroke-opacity:1;marker:none;marker-start:none;marker-mid:none;marker-end:none;paint-order:normal;enable-background:new"
         d="m -600.01133,405.3013 a 14.999999,14.999999 0 0 1 -14.99999,15 14.999999,14.999999 0 0 1 -15,-15 14.999999,14.999999 0 0 1 15,-15 14.999999,14.999999 0 0 1 14.99999,15 z"
         id="path981-5"
         inkscape:connector-curvature="0" />
      <circle
         r="13.5"
         style="display:inline;opacity:1;fill:#3584e4;fill-opacity:1;stroke:none;stroke-width:0.00282455px;stroke-linecap:butt;stroke-linejoin:miter;stroke-miterlimit:4;stroke-dasharray:none;stroke-dashoffset:0;stroke-opacity:1;marker:none;marker-start:none;marker-mid:none;marker-end:none;paint-order:normal;enable-background:new"
         id="circle983-6"
         cx="-615.01129"
         cy="405.3013" />
      <path
         inkscape:connector-curvature="0"
         id="circle1003-6-3"
         d="m -615.0113,391.8013 a 13.5,13.5 0 0 0 -13.5,13.5 13.5,13.5 0 0 0 0.0104,0.29272 13.5,13.5 0 0 1 13.48963,-13.29272 13.5,13.5 0 0 1 13.48962,13.20703 13.5,13.5 0 0 0 0.0104,-0.20703 13.5,13.5 0 0 0 -13.5,-13.5 z"
         style="display:inline;opacity:0.1;fill:#000000;fill-opacity:1;stroke:none;stroke-width:0.00282455px;stroke-linecap:butt;stroke-linejoin:miter;stroke-miterlimit:4;stroke-dasharray:none;stroke-dashoffset:0;stroke-opacity:1;marker:none;marker-start:none;marker-mid:none;marker-end:none;paint-order:normal;enable-background:new" />
      <g
         style="filter:url(#filter4738)"
         id="sketches"
         transform="matrix(0.13136289,-0.13136289,0.13019,0.13019,-609.61413,405.29426)" />
      <path
         style="color:#000000;clip-rule:nonzero;display:inline;overflow:visible;visibility:visible;opacity:1;isolation:auto;mix-blend-mode:normal;color-interpolation:sRGB;color-interpolation-filters:linearRGB;solid-color:#000000;solid-opacity:1;fill:#241f31;fill-opacity:1;fill-rule:evenodd;stroke:#273445;stroke-width:1.25;stroke-linecap:butt;stroke-linejoin:miter;stroke-miterlimit:4;stroke-dasharray:none;stroke-dashoffset:0;stroke-opacity:1;color-rendering:auto;image-rendering:auto;shape-rendering:auto;text-rendering:auto;enable-background:accumulate"
         d="m -614.9288,394.56527 c -0.50695,-7e-5 -0.98164,0.14053 -1.3885,0.38555 -0.80362,0.48399 -1.34256,1.37541 -1.34257,2.39502 5e-4,0.1755 0.0179,0.35052 0.0511,0.52273 v 7.94259 c -1.41687,0.89267 -2.27681,2.45044 -2.27757,4.12583 -8e-5,2.69417 2.18255,4.87826 4.875,4.87828 2.69245,-2e-5 4.87507,-2.18411 4.875,-4.87828 -5e-5,-0.75834 -0.17622,-1.49365 -0.50134,-2.1544 -0.36554,-0.74288 -0.91936,-1.39151 -1.62282,-1.87262 v -7.98105 c 0.0408,-0.19158 0.0617,-0.38703 0.0622,-0.58308 0,-1.53564 -1.22251,-2.78052 -2.73057,-2.78057 z"
         id="path4209"
         inkscape:connector-curvature="0"
         sodipodi:nodetypes="csccccccscccc" />
      <circle
         style="color:#000000;clip-rule:nonzero;display:inline;overflow:visible;visibility:visible;opacity:1;isolation:auto;mix-blend-mode:normal;color-interpolation:sRGB;color-interpolation-filters:linearRGB;solid-color:#000000;solid-opacity:1;fill:#98c1f1;fill-opacity:1;fill-rule:evenodd;stroke:#98c1f1;stroke-width:1.25000012;stroke-linecap:round;stroke-linejoin:round;stroke-miterlimit:4;stroke-dasharray:none;stroke-dashoffset:0;stroke-opacity:1;color-rendering:auto;image-rendering:auto;shape-rendering:auto;text-rendering:auto;enable-background:accumulate"
         id="path4232"
         cx="-615.01129"
         cy="410.06525"
         r="1.875" />
      <path
         style="fill:none;fill-rule:evenodd;stroke:#fafafa;stroke-width:1.24999988;stroke-linecap:round;stroke-linejoin:round;stroke-miterlimit:4;stroke-dasharray:none;stroke-opacity:1"
         d="m -615.0113,397.53365 v 4.0404 z"
         id="path4222-7"
         inkscape:connector-curvature="0" />
      <path
         style="fill:none;fill-rule:evenodd;stroke:#98c1f1;stroke-width:1.24999988;stroke-linecap:round;stroke-linejoin:round;stroke-miterlimit:4;stroke-dasharray:none;stroke-opacity:1"
         d="m -615.0113,401.58329 v 7.93602 z"
         id="path4222"
         inkscape:connector-curvature="0" />
    </g>
    <path
       style="fill:#584e40;fill-opacity:0;stroke-width:0.00877393"
       d="m 122.54363,136.11204 c -0.0241,-0.001 -0.10547,-0.0107 -0.18075,-0.0201 -1.45341,-0.18174 -2.6461,-1.22997 -3.01356,-2.64855 -0.0891,-0.34405 -0.1294,-0.7469 -0.10364,-1.03654 0.0481,-0.54046 0.19516,-1.02488 0.44621,-1.46957 0.5566,-0.98588 1.51534,-1.63595 2.64555,-1.79381 0.28868,-0.0403 0.66178,-0.0384 0.96952,0.005 1.14478,0.16134 2.14834,0.87825 2.67595,1.91162 0.19718,0.38619 0.3237,0.81189 0.37419,1.25906 0.0165,0.14564 0.014,0.45834 -0.005,0.61856 -0.0932,0.79348 -0.421,1.50167 -0.9565,2.06626 -0.61084,0.64403 -1.41519,1.02915 -2.3082,1.10515 -0.0966,0.008 -0.43985,0.0101 -0.54398,0.003 z m 0.38605,-0.88036 c 0.36287,-0.0343 0.67744,-0.18505 0.92612,-0.44393 0.16848,-0.1754 0.28414,-0.37769 0.3539,-0.61901 0.0691,-0.23898 0.0665,-0.55982 -0.006,-0.80153 -0.0828,-0.27427 -0.23652,-0.51452 -0.44039,-0.68807 l -0.066,-0.0562 0.005,-1.03152 c 0.002,-0.56734 0.006,-1.09075 0.006,-1.16314 0.002,-0.1174 -10e-4,-0.1406 -0.0215,-0.21496 -0.0432,-0.15712 -0.10941,-0.2756 -0.21785,-0.38976 -0.11464,-0.12068 -0.2551,-0.20585 -0.41627,-0.2524 -0.0621,-0.0179 -0.0883,-0.0202 -0.22812,-0.0198 -0.14648,4.5e-4 -0.16366,0.002 -0.2369,0.0246 -0.42582,0.13 -0.69454,0.5294 -0.64655,0.96099 0.007,0.0671 0.0104,0.37439 0.0104,1.07621 l -1.1e-4,0.98228 -0.0669,0.0524 c -0.14589,0.11436 -0.2908,0.29516 -0.37993,0.47401 -0.16761,0.33634 -0.20287,0.70956 -0.10052,1.06395 0.0681,0.23582 0.19631,0.45007 0.37663,0.62942 0.26298,0.26158 0.6262,0.41502 1.00443,0.42434 0.0266,5e-4 0.0917,-0.003 0.14477,-0.008 z"
       id="path30"
       inkscape:connector-curvature="0" />
    <path
       style="fill:#3584e4;fill-opacity:0;stroke-width:0.00877393"
       d="m 122.53047,136.11295 c -0.0169,-0.002 -0.0702,-0.008 -0.11845,-0.013 -0.65911,-0.0703 -1.31685,-0.34405 -1.84661,-0.76849 -0.82413,-0.66029 -1.32224,-1.68516 -1.32767,-2.73167 -0.002,-0.478 0.13347,-1.03293 0.36825,-1.50318 0.17526,-0.35103 0.37261,-0.62731 0.65195,-0.91269 0.45152,-0.46129 0.99027,-0.77783 1.61449,-0.9486 0.89293,-0.24429 1.86097,-0.12571 2.66925,0.32697 0.90607,0.50744 1.53895,1.36595 1.75677,2.38307 0.0561,0.26177 0.0695,0.38573 0.0697,0.64127 6e-5,0.12955 -0.004,0.27172 -0.0112,0.32902 -0.0933,0.83183 -0.44995,1.58104 -1.02749,2.15858 -0.55883,0.55883 -1.27167,0.91017 -2.06645,1.01851 -0.10434,0.0142 -0.1907,0.0186 -0.41676,0.0208 -0.15684,0.001 -0.29898,0.001 -0.31586,-5e-4 z m 0.38167,-0.88143 c 0.77063,-0.0667 1.34679,-0.6877 1.34679,-1.45157 0,-0.4076 -0.15986,-0.77694 -0.46056,-1.0641 l -0.10182,-0.0972 0.005,-1.05567 c 0.003,-0.58062 0.005,-1.10108 0.005,-1.15657 -3.5e-4,-0.41617 -0.3392,-0.7979 -0.75633,-0.85204 -0.0948,-0.0123 -0.25947,-0.004 -0.34531,0.0185 -0.0806,0.0206 -0.19299,0.0721 -0.26891,0.12332 -0.0721,0.0486 -0.18347,0.15609 -0.23139,0.22331 -0.12508,0.17547 -0.18568,0.40333 -0.16357,0.61503 0.007,0.0656 0.01,0.40531 0.01,1.07948 l -2e-5,0.98382 -0.0504,0.038 c -0.0774,0.0582 -0.21058,0.19763 -0.27651,0.28947 -0.0716,0.0998 -0.17101,0.29757 -0.2069,0.41171 -0.12914,0.41079 -0.0763,0.83922 0.14904,1.20864 0.1215,0.19917 0.32841,0.39496 0.54275,0.51357 0.0835,0.0463 0.23937,0.1067 0.34105,0.13234 0.10106,0.0255 0.19099,0.0384 0.33454,0.0478 0.0121,0.001 0.0693,-0.002 0.12722,-0.008 z"
       id="path34"
       inkscape:connector-curvature="0" />
    <path
       style="fill:#3584e4;fill-opacity:0;stroke-width:0.00877393"
       d="m 122.48538,136.10922 c -1.0671,-0.11048 -1.98248,-0.63865 -2.59628,-1.49804 -0.32887,-0.46045 -0.546,-1.0174 -0.62508,-1.60333 -0.0229,-0.16971 -0.032,-0.50416 -0.0175,-0.6496 0.0501,-0.50618 0.20813,-1.01114 0.44739,-1.42982 0.77084,-1.34888 2.29007,-2.04748 3.80435,-1.7494 0.93936,0.18491 1.77246,0.74832 2.29771,1.55389 0.28912,0.44343 0.46603,0.91758 0.55088,1.4765 0.0284,0.18752 0.0288,0.57272 5e-4,0.78088 -0.0791,0.58561 -0.27104,1.09409 -0.59103,1.56615 -0.48082,0.70931 -1.21021,1.22802 -2.03009,1.4437 -0.3254,0.0856 -0.51392,0.10992 -0.88178,0.11376 -0.15684,0.001 -0.31847,-4.7e-4 -0.3592,-0.005 z m 0.425,-0.87772 c 0.35238,-0.0306 0.65262,-0.16404 0.89939,-0.39981 0.21111,-0.20169 0.35934,-0.46837 0.42293,-0.7609 0.0168,-0.0774 0.0194,-0.11552 0.0194,-0.29084 0,-0.2273 -0.0108,-0.29925 -0.0702,-0.4707 -0.08,-0.23059 -0.17871,-0.38582 -0.36177,-0.56895 l -0.12712,-0.12716 0.008,-1.031 c 0.01,-1.35058 0.0107,-1.26959 -0.013,-1.36001 -0.0229,-0.0875 -0.0796,-0.21176 -0.13272,-0.29062 -0.0834,-0.1239 -0.22712,-0.24407 -0.37166,-0.31086 -0.11834,-0.0547 -0.19302,-0.0691 -0.35617,-0.0689 -0.16328,2.1e-4 -0.23931,0.0149 -0.35616,0.0689 -0.35382,0.16348 -0.55987,0.51564 -0.52903,0.90418 0.004,0.0435 0.007,0.52761 0.007,1.07595 l 0.001,0.997 -0.0327,0.025 c -0.21856,0.1667 -0.40285,0.42609 -0.49179,0.6922 -0.16954,0.50725 -0.054,1.05244 0.30653,1.44658 0.24491,0.26775 0.58848,0.43825 0.94621,0.46959 0.11916,0.0105 0.11685,0.0105 0.23251,3.9e-4 z"
       id="path4544"
       inkscape:connector-curvature="0" />
    <path
       style="fill:#3584e4;fill-opacity:0;stroke-width:0.00877393"
       d="m 122.48538,136.10922 c -1.0671,-0.11048 -1.98248,-0.63865 -2.59628,-1.49804 -0.32887,-0.46045 -0.546,-1.0174 -0.62508,-1.60333 -0.0229,-0.16971 -0.032,-0.50416 -0.0175,-0.6496 0.0501,-0.50618 0.20813,-1.01114 0.44739,-1.42982 0.77084,-1.34888 2.29007,-2.04748 3.80435,-1.7494 0.93936,0.18491 1.77246,0.74832 2.29771,1.55389 0.28912,0.44343 0.46603,0.91758 0.55088,1.4765 0.0284,0.18752 0.0288,0.57272 5e-4,0.78088 -0.0791,0.58561 -0.27104,1.09409 -0.59103,1.56615 -0.48082,0.70931 -1.21021,1.22802 -2.03009,1.4437 -0.3254,0.0856 -0.51392,0.10992 -0.88178,0.11376 -0.15684,0.001 -0.31847,-4.7e-4 -0.3592,-0.005 z m 0.425,-0.87772 c 0.35238,-0.0306 0.65262,-0.16404 0.89939,-0.39981 0.21111,-0.20169 0.35934,-0.46837 0.42293,-0.7609 0.0168,-0.0774 0.0194,-0.11552 0.0194,-0.29084 0,-0.2273 -0.0108,-0.29925 -0.0702,-0.4707 -0.08,-0.23059 -0.17871,-0.38582 -0.36177,-0.56895 l -0.12712,-0.12716 0.008,-1.031 c 0.01,-1.35058 0.0107,-1.26959 -0.013,-1.36001 -0.0229,-0.0875 -0.0796,-0.21176 -0.13272,-0.29062 -0.0834,-0.1239 -0.22712,-0.24407 -0.37166,-0.31086 -0.11834,-0.0547 -0.19302,-0.0691 -0.35617,-0.0689 -0.16328,2.1e-4 -0.23931,0.0149 -0.35616,0.0689 -0.35382,0.16348 -0.55987,0.51564 -0.52903,0.90418 0.004,0.0435 0.007,0.52761 0.007,1.07595 l 0.001,0.997 -0.0327,0.025 c -0.21856,0.1667 -0.40285,0.42609 -0.49179,0.6922 -0.16954,0.50725 -0.054,1.05244 0.30653,1.44658 0.24491,0.26775 0.58848,0.43825 0.94621,0.46959 0.11916,0.0105 0.11685,0.0105 0.23251,3.9e-4 z"
       id="path4546"
       inkscape:connector-curvature="0" />
    <path
       style="fill:#358400;fill-opacity:0;stroke-width:0.00877393"
       d="m 122.48538,136.10922 c -1.0671,-0.11048 -1.98248,-0.63865 -2.59628,-1.49804 -0.32887,-0.46045 -0.546,-1.0174 -0.62508,-1.60333 -0.0229,-0.16971 -0.032,-0.50416 -0.0175,-0.6496 0.0501,-0.50618 0.20813,-1.01114 0.44739,-1.42982 0.77084,-1.34888 2.29007,-2.04748 3.80435,-1.7494 0.93936,0.18491 1.77246,0.74832 2.29771,1.55389 0.28912,0.44343 0.46603,0.91758 0.55088,1.4765 0.0284,0.18752 0.0288,0.57272 5e-4,0.78088 -0.0791,0.58561 -0.27104,1.09409 -0.59103,1.56615 -0.48082,0.70931 -1.21021,1.22802 -2.03009,1.4437 -0.3254,0.0856 -0.51392,0.10992 -0.88178,0.11376 -0.15684,0.001 -0.31847,-4.7e-4 -0.3592,-0.005 z m 0.425,-0.87772 c 0.35238,-0.0306 0.65262,-0.16404 0.89939,-0.39981 0.21111,-0.20169 0.35934,-0.46837 0.42293,-0.7609 0.0168,-0.0774 0.0194,-0.11552 0.0194,-0.29084 0,-0.2273 -0.0108,-0.29925 -0.0702,-0.4707 -0.08,-0.23059 -0.17871,-0.38582 -0.36177,-0.56895 l -0.12712,-0.12716 0.008,-1.031 c 0.01,-1.35058 0.0107,-1.26959 -0.013,-1.36001 -0.0229,-0.0875 -0.0796,-0.21176 -0.13272,-0.29062 -0.0834,-0.1239 -0.22712,-0.24407 -0.37166,-0.31086 -0.11834,-0.0547 -0.19302,-0.0691 -0.35617,-0.0689 -0.16328,2.1e-4 -0.23931,0.0149 -0.35616,0.0689 -0.35382,0.16348 -0.55987,0.51564 -0.52903,0.90418 0.004,0.0435 0.007,0.52761 0.007,1.07595 l 0.001,0.997 -0.0327,0.025 c -0.21856,0.1667 -0.40285,0.42609 -0.49179,0.6922 -0.16954,0.50725 -0.054,1.05244 0.30653,1.44658 0.24491,0.26775 0.58848,0.43825 0.94621,0.46959 0.11916,0.0105 0.11685,0.0105 0.23251,3.9e-4 z"
       id="path4548"
       inkscape:connector-curvature="0" />
  </g>
</svg>
